[
   {
      "pk": 1, 
      "model": "estimator.legacypage", 
      "fields": {
         "name": "Index", 
         "parent": null, 
         "description": "eBay Education Specialist Program"
      }
   }, 
   {
      "pk": 2, 
      "model": "estimator.legacypage", 
      "fields": {
         "name": "Administrator", 
         "parent": null, 
         "description": "Control Panel"
      }
   }, 
   {
      "pk": 3, 
      "model": "estimator.legacypage", 
      "fields": {
         "name": "Logout", 
         "parent": 2, 
         "description": "Logout Of Admin"
      }
   }, 
   {
      "pk": 4, 
      "model": "estimator.legacypage", 
      "fields": {
         "name": "Instructor Information", 
         "parent": 2, 
         "description": "Approve / Activate / Deactivate / Delete Instructor"
      }
   }, 
   {
      "pk": 5, 
      "model": "estimator.legacypage", 
      "fields": {
         "name": "Eval Forms and Questions", 
         "parent": 2, 
         "description": ""
      }
   }, 
   {
      "pk": 6, 
      "model": "estimator.legacypage", 
      "fields": {
         "name": "Reports", 
         "parent": 2, 
         "description": "TTT / Instructor Course Results"
      }
   }, 
   {
      "pk": 7, 
      "model": "estimator.legacypage", 
      "fields": {
         "name": "Individual Instructor Reports", 
         "parent": 2, 
         "description": ""
      }
   }, 
   {
      "pk": 8, 
      "model": "estimator.legacypage", 
      "fields": {
         "name": "Report Administration", 
         "parent": 2, 
         "description": ""
      }
   }, 
   {
      "pk": 11, 
      "model": "estimator.legacypage", 
      "fields": {
         "name": "Course Setup Tools", 
         "parent": 2, 
         "description": ""
      }
   }, 
   {
      "pk": 13, 
      "model": "estimator.legacypage", 
      "fields": {
         "name": "Country Manager", 
         "parent": 11, 
         "description": ""
      }
   }, 
   {
      "pk": 14, 
      "model": "estimator.legacypage", 
      "fields": {
         "name": "Course Manager", 
         "parent": 11, 
         "description": ""
      }
   }, 
   {
      "pk": 15, 
      "model": "estimator.legacypage", 
      "fields": {
         "name": "Course Registration Log", 
         "parent": 11, 
         "description": ""
      }
   }, 
   {
      "pk": 16, 
      "model": "estimator.legacypage", 
      "fields": {
         "name": "Renewals Due", 
         "parent": 11, 
         "description": ""
      }
   }, 
   {
      "pk": 17, 
      "model": "estimator.legacypage", 
      "fields": {
         "name": "Reminders Sent Out", 
         "parent": 11, 
         "description": ""
      }
   }, 
   {
      "pk": 18, 
      "model": "estimator.legacypage", 
      "fields": {
         "name": "Survey", 
         "parent": 2, 
         "description": ""
      }
   }, 
   {
      "pk": 19, 
      "model": "estimator.legacypage", 
      "fields": {
         "name": "Avilar Administration", 
         "parent": 2, 
         "description": ""
      }
   }, 
   {
      "pk": 20, 
      "model": "estimator.legacypage", 
      "fields": {
         "name": "Adminstrator Search", 
         "parent": 2, 
         "description": ""
      }
   }, 
   {
      "pk": 21, 
      "model": "estimator.legacypage", 
      "fields": {
         "name": "eBay Education Specialist Dashboard", 
         "parent": 2, 
         "description": ""
      }
   }, 
   {
      "pk": 22, 
      "model": "estimator.legacypage", 
      "fields": {
         "name": "Add/Edit News Items", 
         "parent": 2, 
         "description": ""
      }
   }, 
   {
      "pk": 23, 
      "model": "estimator.legacypage", 
      "fields": {
         "name": "Testimonials", 
         "parent": 2, 
         "description": ""
      }
   }, 
   {
      "pk": 24, 
      "model": "estimator.legacypage", 
      "fields": {
         "name": "Send Email", 
         "parent": 2, 
         "description": ""
      }
   }, 
   {
      "pk": 25, 
      "model": "estimator.legacypage", 
      "fields": {
         "name": "Add Featured Instructor", 
         "parent": 2, 
         "description": ""
      }
   }, 
   {
      "pk": 26, 
      "model": "estimator.legacypage", 
      "fields": {
         "name": "Site Subscriptions", 
         "parent": 2, 
         "description": "Add / Edit Site Subscriptions"
      }
   }, 
   {
      "pk": 27, 
      "model": "estimator.legacypage", 
      "fields": {
         "name": "Review Student Evaluations", 
         "parent": 2, 
         "description": ""
      }
   }, 
   {
      "pk": 28, 
      "model": "estimator.legacypage", 
      "fields": {
         "name": "Post-Event Reports", 
         "parent": 2, 
         "description": ""
      }
   }, 
   {
      "pk": 29, 
      "model": "estimator.legacypage", 
      "fields": {
         "name": "Award Management", 
         "parent": 2, 
         "description": ""
      }
   }, 
   {
      "pk": 30, 
      "model": "estimator.legacypage", 
      "fields": {
         "name": "Instructor", 
         "parent": 1, 
         "description": ""
      }
   }, 
   {
      "pk": 31, 
      "model": "estimator.legacypage", 
      "fields": {
         "name": "Privacy Policy", 
         "parent": 30, 
         "description": ""
      }
   }, 
   {
      "pk": 32, 
      "model": "estimator.legacypage", 
      "fields": {
         "name": "Education Specialist User Agreement", 
         "parent": 30, 
         "description": ""
      }
   }, 
   {
      "pk": 33, 
      "model": "estimator.legacypage", 
      "fields": {
         "name": "eBay Education Specialist Program FAQs  ", 
         "parent": 30, 
         "description": ""
      }
   }, 
   {
      "pk": 34, 
      "model": "estimator.legacypage", 
      "fields": {
         "name": "Instructor Registration", 
         "parent": 30, 
         "description": ""
      }
   }, 
   {
      "pk": 35, 
      "model": "estimator.legacypage", 
      "fields": {
         "name": "Feedback", 
         "parent": 30, 
         "description": ""
      }
   }, 
   {
      "pk": 36, 
      "model": "estimator.legacypage", 
      "fields": {
         "name": "Instructor Login", 
         "parent": 30, 
         "description": ""
      }
   }, 
   {
      "pk": 37, 
      "model": "estimator.legacypage", 
      "fields": {
         "name": "Student", 
         "parent": 1, 
         "description": ""
      }
   }, 
   {
      "pk": 38, 
      "model": "estimator.legacypage", 
      "fields": {
         "name": "Student Log In", 
         "parent": 37, 
         "description": ""
      }
   }, 
   {
      "pk": 39, 
      "model": "estimator.legacypage", 
      "fields": {
         "name": "Resources", 
         "parent": 1, 
         "description": ""
      }
   }, 
   {
      "pk": 40, 
      "model": "estimator.legacypage", 
      "fields": {
         "name": "Education Specialist Helpdesk ", 
         "parent": 1, 
         "description": ""
      }
   }, 
   {
      "pk": 41, 
      "model": "estimator.legacypage", 
      "fields": {
         "name": "Find Instructors", 
         "parent": 1, 
         "description": "Search"
      }
   }, 
   {
      "pk": 42, 
      "model": "estimator.legacypage", 
      "fields": {
         "name": "Privacy Appendix", 
         "parent": 1, 
         "description": ""
      }
   }, 
   {
      "pk": 43, 
      "model": "estimator.legacypage", 
      "fields": {
         "name": "Advanced Search", 
         "parent": 41, 
         "description": ""
      }
   }, 
   {
      "pk": 44, 
      "model": "estimator.legacypage", 
      "fields": {
         "name": "Leads", 
         "parent": 41, 
         "description": ""
      }
   }, 
   {
      "pk": 45, 
      "model": "estimator.legacypage", 
      "fields": {
         "name": "Certified Instructor", 
         "parent": 41, 
         "description": ""
      }
   }, 
   {
      "pk": 46, 
      "model": "estimator.legacypage", 
      "fields": {
         "name": "Courses Offered", 
         "parent": 41, 
         "description": ""
      }
   }, 
   {
      "pk": 47, 
      "model": "estimator.legacypage", 
      "fields": {
         "name": "Event Information", 
         "parent": 30, 
         "description": ""
      }
   }, 
   {
      "pk": 49, 
      "model": "estimator.legacypage", 
      "fields": {
         "name": "Add Event", 
         "parent": 47, 
         "description": ""
      }
   }, 
   {
      "pk": 50, 
      "model": "estimator.legacypage", 
      "fields": {
         "name": "Review Events", 
         "parent": 47, 
         "description": ""
      }
   }, 
   {
      "pk": 51, 
      "model": "estimator.legacypage", 
      "fields": {
         "name": "Post-Event Reports", 
         "parent": 30, 
         "description": ""
      }
   }, 
   {
      "pk": 52, 
      "model": "estimator.legacypage", 
      "fields": {
         "name": "Edit Instructor Information", 
         "parent": 30, 
         "description": ""
      }
   }, 
   {
      "pk": 53, 
      "model": "estimator.legacypage", 
      "fields": {
         "name": "Store", 
         "parent": 30, 
         "description": ""
      }
   }, 
   {
      "pk": 54, 
      "model": "estimator.legacypage", 
      "fields": {
         "name": "Store Login", 
         "parent": 53, 
         "description": ""
      }
   }, 
   {
      "pk": 55, 
      "model": "estimator.legacypage", 
      "fields": {
         "name": "Cafe Press", 
         "parent": 53, 
         "description": ""
      }
   }, 
   {
      "pk": 56, 
      "model": "estimator.legacypage", 
      "fields": {
         "name": "Training Materials Store", 
         "parent": 53, 
         "description": ""
      }
   }, 
   {
      "pk": 57, 
      "model": "estimator.legacypage", 
      "fields": {
         "name": "eBay Discussion Board", 
         "parent": 30, 
         "description": "External"
      }
   }, 
   {
      "pk": 58, 
      "model": "estimator.legacypage", 
      "fields": {
         "name": "Log Out", 
         "parent": 30, 
         "description": ""
      }
   }, 
   {
      "pk": 59, 
      "model": "estimator.legacypage", 
      "fields": {
         "name": "USBennefits.pdf", 
         "parent": 30, 
         "description": ""
      }
   }, 
   {
      "pk": 60, 
      "model": "estimator.legacypage", 
      "fields": {
         "name": "Purchase Courses", 
         "parent": 30, 
         "description": ""
      }
   }, 
   {
      "pk": 61, 
      "model": "estimator.legacypage", 
      "fields": {
         "name": "eBay Stores", 
         "parent": 60, 
         "description": ""
      }
   }, 
   {
      "pk": 62, 
      "model": "estimator.legacypage", 
      "fields": {
         "name": "Beyond the Basics", 
         "parent": 60, 
         "description": ""
      }
   }, 
   {
      "pk": 63, 
      "model": "estimator.legacypage", 
      "fields": {
         "name": "Business Consultant", 
         "parent": 60, 
         "description": ""
      }
   }, 
   {
      "pk": 64, 
      "model": "estimator.legacypage", 
      "fields": {
         "name": "InstructorPortalHandout.pdf", 
         "parent": 30, 
         "description": ""
      }
   }, 
   {
      "pk": 65, 
      "model": "estimator.legacypage", 
      "fields": {
         "name": "News Archive", 
         "parent": 30, 
         "description": ""
      }
   }, 
   {
      "pk": 66, 
      "model": "estimator.legacypage", 
      "fields": {
         "name": "Feedback", 
         "parent": 30, 
         "description": ""
      }
   }, 
   {
      "pk": 67, 
      "model": "estimator.legacypage", 
      "fields": {
         "name": "Featured Instructors", 
         "parent": 30, 
         "description": ""
      }
   }, 
   {
      "pk": 68, 
      "model": "estimator.legacypage", 
      "fields": {
         "name": "FAQs", 
         "parent": 30, 
         "description": ""
      }
   }, 
   {
      "pk": 69, 
      "model": "estimator.legacypage", 
      "fields": {
         "name": "Instructor Profile", 
         "parent": 30, 
         "description": ""
      }
   }, 
   {
      "pk": 70, 
      "model": "estimator.legacypage", 
      "fields": {
         "name": "Feedback", 
         "parent": 69, 
         "description": ""
      }
   }, 
   {
      "pk": 71, 
      "model": "estimator.legacypage", 
      "fields": {
         "name": "Search", 
         "parent": 37, 
         "description": ""
      }
   }, 
   {
      "pk": 72, 
      "model": "estimator.legacypage", 
      "fields": {
         "name": "Class Search", 
         "parent": 71, 
         "description": ""
      }
   }, 
   {
      "pk": 73, 
      "model": "estimator.legacypage", 
      "fields": {
         "name": "Instructor Search", 
         "parent": 71, 
         "description": ""
      }
   }, 
   {
      "pk": 74, 
      "model": "estimator.legacypage", 
      "fields": {
         "name": "Instructor Bio", 
         "parent": 30, 
         "description": ""
      }
   }
]